{
  "messages": 10000,
  "publication": {
    "frequencies": [
      {
        "key": "name",
        "rules": [
          {
            "operator": "=",
            "value": "Google",
            "percent": 50.0
          },
          {
            "operator": "!=",
            "value": "Facebook",
            "percent": 60.0
          }
        ]
      },
      {
        "key": "variation",
        "rules": [
          {
            "operator": ">=",
            "value": 30.0,
            "percent": 40.0
          },
          {
            "operator": "<=",
            "value": 60.0,
            "percent": 70.0
          }
        ],
        "limits": {
          "inferior": 20.0,
          "superior": 80.0
        }
      },
      {
        "key": "value",
        "rules": [
          {
            "operator": ">=",
            "value": 18.0,
            "percent": 60.0
          },
          {
            "operator": "<",
            "value": 68.0,
            "percent": 50.0
          }
        ],
        "limits": {
          "inferior": 10.0,
          "superior": 95.0
        }
      },
      {
        "key": "drop",
        "rules": [
          {
            "operator": "<",
            "value": 70.0,
            "percent": 70.0
          },
          {
            "operator": "<=",
            "value": 70.0,
            "percent": 70.0
          },
          {
            "operator": ">=",
            "value": 30.0,
            "percent": 30.0
          },
          {
            "operator": ">",
            "value": 28.0,
            "percent": 30.0
          },
          {
            "operator": "!=",
            "value": 45.0,
            "percent": 15.0
          }
        ],
        "limits": {
          "inferior": 10.0,
          "superior": 180.0
        }
      },
      {
        "key": "date",
        "rules": [
          {
            "operator": ">=",
            "value": "2018-05-10",
            "percent": 60.0
          },
          {
            "operator": "<",
            "value": "2020-02-05",
            "percent": 40.0
          }
        ],
        "limits": {
          "inferior": "2018-01-01",
          "superior": "2018-03-01"
        }
      }
    ]
  },
  "subscription": {
    "frequencies": [
      {
        "key": "name",
        "rules": [
          {
            "operator": "=",
            "value": "Google",
            "percent": 50.0
          },
          {
            "operator": "!=",
            "value": "Facebook",
            "percent": 60.0
          }
        ]
      },
      {
        "key": "variation",
        "rules": [
          {
            "operator": ">=",
            "value": 30.0,
            "percent": 40.0
          },
          {
            "operator": "<=",
            "value": 60.0,
            "percent": 70.0
          }
        ],
        "limits": {
          "inferior": 20.0,
          "superior": 80.0
        }
      },
      {
        "key": "value",
        "rules": [
          {
            "operator": ">=",
            "value": 18.0,
            "percent": 60.0
          },
          {
            "operator": "<",
            "value": 68.0,
            "percent": 50.0
          }
        ],
        "limits": {
          "inferior": 10.0,
          "superior": 95.0
        }
      },
      {
        "key": "drop",
        "rules": [
          {
            "operator": "<",
            "value": 90.0,
            "percent": 40.0
          },
          {
            "operator": ">=",
            "value": 20.0,
            "percent": 30.0
          }
        ],
        "limits": {
          "inferior": 15.0,
          "superior": 80.0
        }
      },
      {
        "key": "date",
        "rules": [
          {
            "operator": ">",
            "value": "2018-05-10",
            "percent": 30.0
          },
          {
            "operator": "<=",
            "value": "2020-02-05",
            "percent": 40.0
          }
        ],
        "limits": {
          "inferior": "2017-12-01",
          "superior": "2020-03-01"
        }
      }
    ]
  }
}